{
  "server": {
    "baseDir": ["./src", "./build/contracts"]
  },
  "open": false,
  "ghostMode": false,
  "watchOptions": {
    "ignoreInitial": true,
    "ignored": ["./election-api", "./node_modules"]
  }
}
